{
    "IP2D_isDefaults": [
        "IP2D_pu", "IP2D_pc", "IP2D_pb",
        "IP2D_cu", "IP2D_bu", "IP2D_bc"
    ],
    "IP3D_isDefaults": [
        "IP3D_pu", "IP3D_pc", "IP3D_pb",
        "IP3D_cu", "IP3D_bu", "IP3D_bc"
    ],
    "JetFitter_isDefaults": [
        "JetFitter_nVTX",
        "JetFitter_nSingleTracks",
        "JetFitter_nTracksAtVtx",
        "JetFitter_N2Tpair",
        "JetFitter_energyFraction",
        "JetFitter_mass",
        "JetFitter_significance3d",
        "JetFitter_deltaphi",
        "JetFitter_deltaeta",
        "JetFitter_massUncorr",
        "JetFitter_dRFlightDir",
        "JetFitter_deltaR"
    ],
    "SV1_isDefaults": [
        "SV1_NGTinSvx",
        "SV1_N2Tpair",
        "SV1_masssvx",
        "SV1_efracsvx",
        "SV1_significance3d",
        "SV1_dstToMatLay",
        "SV1_deltaR",
        "SV1_Lxy",
        "SV1_L3d",
        "SV1_pu",
        "SV1_pc",
        "SV1_pb"
    ],
    "JetFitterSecondaryVertex_isDefaults": [
        "JetFitterSecondaryVertex_mass",
        "JetFitterSecondaryVertex_energy",
        "JetFitterSecondaryVertex_energyFraction",
        "JetFitterSecondaryVertex_minimumTrackRelativeEta",
        "JetFitterSecondaryVertex_maximumTrackRelativeEta",
        "JetFitterSecondaryVertex_averageTrackRelativeEta",
        "JetFitterSecondaryVertex_displacement3d",
        "JetFitterSecondaryVertex_displacement2d",
        "JetFitterSecondaryVertex_nTracks",
        "JetFitterSecondaryVertex_maximumAllJetTrackRelativeEta",
        "JetFitterSecondaryVertex_minimumAllJetTrackRelativeEta",
        "JetFitterSecondaryVertex_averageAllJetTrackRelativeEta"
    ],
    "SMT_isDefaults": [
        "SMT_discriminant",
        "SMT_mu_pt",
        "SMT_dR",
        "SMT_qOverPratio",
        "SMT_mombalsignif",
        "SMT_scatneighsignif",
        "SMT_pTrel",
        "SMT_mu_d0",
        "SMT_mu_z0",
        "SMT_ID_qOverP"
    ],
    "softMuon_isDefaults": [
        "softMuon_pt",
        "softMuon_dR",
        "softMuon_eta",
        "softMuon_phi",
        "softMuon_qOverPratio",
        "softMuon_momentumBalanceSignificance",
        "softMuon_scatteringNeighbourSignificance",
        "softMuon_pTrel",
        "softMuon_ip3dD0",
        "softMuon_ip3dZ0",
        "softMuon_ip3dD0Significance",
        "softMuon_ip3dZ0Significance",
        "softMuon_ip3dD0Uncertainty",
        "softMuon_ip3dZ0Uncertainty"
    ]
}
