{
    "pt_minimum": 500,
    "abs_eta_maximum": 2.5,
    "d0_maximum": 1000.0,
    "z0_maximum": 1000.0,
    "si_hits_minimum": 0,
    "si_shared_maximum": 100,
    "si_holes_maximum": 100,
    "pix_holes_maximum": 100
}
