{
    "ints" : [
        "charge",
        "flavour",
        "pdgId",
        "barcode",
  "ftagTruthParentBarcode"
    ],
    "floats" : [
        "pt",
        "mass",
        "energy",
        "eta",
        "phi",
        "deta",
        "dphi",
        "dr",
        "decayVertexX",
        "decayVertexY",
        "decayVertexZ",
        "Lxy",
        "decayVertexDPhi",
        "decayVertexDEta"
    ]
}
