{
  "file": "../EMPFlowRetagAthena.json",
  "tracks": [
    {
        "n_to_save": 40,
        "selection": {
            "file": "../fragments/r22default-track-cuts.json"
        },
        "sort_order": "d0_significance",
        "output_name": "tracks",
        "input_name": "BTagTrackToJetAssociator",
        "btagging_link": "",
        "ip_prefix": "",
        "variables": {
            "customs": [],
            "file": "../fragments/pflow-track-variables-all.json"
        },
        "edm_names": {
            "ftagTruthOriginLabel": "ftagTruthOriginLabelTDD",
            "ftagTruthVertexIndex": "ftagTruthVertexIndexTDD",
            "ftagTruthTypeLabel": "ftagTruthTypeLabelTDD",
            "ftagTruthSourceLabel" : "ftagTruthSourceLabelTDD"
        }
    }
  ],
  "ca_blocks": [
        {"block": "TruthLabelling", "suffix": "TDD"}
  ],
  "decorate":{
      "suffix": "TDD"
  },
  "track_systematics": []
}
